{
	"isDebug" : true,
	"ecKey" : "wise",
	"DB_HOST" : "localhost",
	"DB_ID" : "root",
	"DB_PASS" : "xerox01!",
	"sqlCmd2" : "SELECT passwd FROM  user_db.user_table WHERE id = ?",
	"sqlCmd3" : "SELECT * FROM  add_book.address_book WHERE user_id = ?",
	"port1" : 8081,
	"port2" : 4433,
	"options" : {
		"key": "",
		"cert": ""
	}
}
